{
    "mc":{
      "caller_type":"workflow",
      "class_str":"MiniApp",
      "__only for script run__commands":["/Users/mkrishnamoorthy/Research/Code/MÆSTRO/maestro/mc/bin/miniapp.py"],
      "parameters":{
        "mc_location":"/home/oyildiz/mohan/mc_miniapp/pythia8rivetminiapp/miniapp",
        "yodamerge_location":"/home/oyildiz/mohan/mc_miniapp/YODA-1.8.1/bin/yodamerge",
        "min_fidelity":50,
        "weights":"conf/weights"
      }
    },
    "model":{
      "parameters":{
        "MC":{"m":2},
        "DMC":{"m":1}
      },
      "function_str":{
        "MC":"appr_pa_m_construct",
        "DMC":"appr_pa_m_construct"
      }
    },
    "f_structure":{
      "parameters":{
        "data":"conf/data.json",
        "weights":"conf/weights",
        "optimization":{
          "nstart":5,"nrestart":10,"saddle_point_check":false,"minimize":true,"use_mpi":true
        }
      },
      "function_str":"appr_tuning_objective"
    }
}
